…
## M3 Major Third

- JT: 5/4
- ET: 2^(4/12)

<!-- -->

    ## # A tibble: 1 × 4
    ##   just_M3_freq just_M3_midi M3_freq M3_midi
    ##          <dbl>        <dbl>   <dbl>   <dbl>
    ## 1         327.         63.9    330.      64

### Intervals near the major third ranked by consonance

    ## # A tibble: 1,000 × 2
    ##    semitone consonance_dissonance
    ##       <dbl>                 <dbl>
    ##  1     63.9                  992.
    ##  2     64.1                  989.
    ##  3     63.7                  989.
    ##  4     63.7                  989.
    ##  5     63.7                  988.
    ##  6     64.0                  987.
    ##  7     63.8                  987.
    ##  8     64.0                  986.
    ##  9     64.0                  986.
    ## 10     63.9                  986.
    ## # ℹ 990 more rows
…
### Intervals near the major third ranked by lowest consonance

    ## # A tibble: 1,000 × 2
    ##    semitone consonance_dissonance
    ##       <dbl>                 <dbl>
    ##  1     63.9                  905.
    ##  2     63.9                  908.
    ##  3     63.9                  909.
    ##  4     63.9                  910.
    ##  5     63.9                  910.
    ##  6     63.9                  911.
    ##  7     63.9                  912.
    ##  8     63.9                  913.
    ##  9     64.1                  914.
    ## 10     63.9                  914.
    ## # ℹ 990 more rows
…
## M6 Major Sixth

- JT: 5/3
- ET: 2^(9/12)

<!-- -->

    ## # A tibble: 1 × 4
    ##   just_M6_freq just_M6_midi M6_freq M6_midi
    ##          <dbl>        <dbl>   <dbl>   <dbl>
    ## 1         436.         68.8     440      69

### Intervals near the major sixth ranked by consonance

    ## # A tibble: 1,000 × 2
    ##    semitone consonance_dissonance
    ##       <dbl>                 <dbl>
    ##  1     68.8                  992.
    ##  2     68.7                  988.
    ##  3     69.0                  988.
    ##  4     69.0                  987.
    ##  5     68.9                  987.
    ##  6     68.8                  986.
    ##  7     68.7                  986.
    ##  8     69.0                  986.
    ##  9     68.7                  985.
    ## 10     68.8                  984.
    ## # ℹ 990 more rows
…
### Intervals near the major sixth ranked by lowest consonance

    ## # A tibble: 1,000 × 2
    ##    semitone consonance_dissonance
    ##       <dbl>                 <dbl>
    ##  1     68.8                  900.
    ##  2     68.8                  901.
    ##  3     68.8                  909.
    ##  4     68.8                  911.
    ##  5     68.8                  912.
    ##  6     68.8                  912.
    ##  7     68.7                  913.
    ##  8     68.8                  913.
    ##  9     68.8                  913.
    ## 10     68.8                  914.
    ## # ℹ 990 more rows
…
