…
- JT: 5/4
- ET: 2^(4/12)

<!-- -->

    #> # A tibble: 1 × 4
    #>   just_M3_freq just_M3_midi M3_freq M3_midi
    #>          <dbl>        <dbl>   <dbl>   <dbl>
    #> 1         327.         63.9    330.      64

##### Intervals near the major third ranked by consonance

    #> # A tibble: 1,000 × 2
    #>    semitone consonance_dissonance
    #>       <dbl>                 <dbl>
    #>  1     63.8                  94.0
    #>  2     63.8                  94.0
    #>  3     63.8                  94.0
    #>  4     63.8                  94.0
    #>  5     63.8                  94.0
    #>  6     63.8                  94.0
    #>  7     63.8                  94.0
    #>  8     63.8                  94.0
    #>  9     63.8                  94.0
    #> 10     63.8                  94.0
    #> # ℹ 990 more rows
…
##### Intervals near the major third ranked by lowest consonance

    #> # A tibble: 1,000 × 2
    #>    semitone consonance_dissonance
    #>       <dbl>                 <dbl>
    #>  1     63.6                  91.3
    #>  2     63.7                  91.3
    #>  3     63.7                  91.3
    #>  4     63.7                  91.3
    #>  5     63.7                  91.3
    #>  6     63.7                  91.3
    #>  7     63.7                  91.3
    #>  8     63.7                  91.3
    #>  9     63.7                  91.3
    #> 10     63.7                  91.3
    #> # ℹ 990 more rows
…
- JT: 5/3
- ET: 2^(9/12)

<!-- -->

    #> # A tibble: 1 × 4
    #>   just_M6_freq just_M6_midi M6_freq M6_midi
    #>          <dbl>        <dbl>   <dbl>   <dbl>
    #> 1         436.         68.8     440      69

##### Intervals near the major sixth ranked by consonance

    #> # A tibble: 1,000 × 2
    #>    semitone consonance_dissonance
    #>       <dbl>                 <dbl>
    #>  1     68.8                  94.7
    #>  2     68.8                  94.7
    #>  3     68.8                  94.7
    #>  4     68.8                  94.7
    #>  5     68.8                  94.7
    #>  6     68.8                  94.7
    #>  7     68.8                  94.7
    #>  8     68.8                  94.7
    #>  9     68.8                  94.7
    #> 10     68.8                  94.7
    #> # ℹ 990 more rows
…
##### Intervals near the major sixth ranked by lowest consonance

    #> # A tibble: 1,000 × 2
    #>    semitone consonance_dissonance
    #>       <dbl>                 <dbl>
    #>  1     68.6                  93.3
    #>  2     68.7                  93.3
    #>  3     68.7                  93.3
    #>  4     68.7                  93.3
    #>  5     68.7                  93.3
    #>  6     68.7                  93.3
    #>  7     68.7                  93.3
    #>  8     68.7                  93.3
    #>  9     68.7                  93.3
    #> 10     68.7                  93.3
    #> # ℹ 990 more rows
…
