…
``` r
matches=analyze_harmonics(hrep::freq(M3),hrep::freq(M3) %>% min,C4_harmonics_w_tolerance)
#> 
#> Attaching package: 'purrr'
#> The following object is masked from 'package:testthat':
#> 
#>     is_null
matches
#> # A tibble: 39 × 5
#>    harmonic harmonic_freq valid_min valid_max pseudo_octave
#>       <int>         <dbl>     <dbl>     <dbl>         <dbl>
#>  1        1          262.      220       311.          1   
#>  2        2          523.      440       622.          2   
#>  3        3          785.      660.      933.          2   
#>  4        4         1047.      880      1245.          1.94
#>  5        4         1047.      880      1245.          2   
#>  6        5         1308.     1100.     1556.          2   
#>  7        5         1308.     1100.     1556.          2.01
#>  8        6         1570.     1320.     1867.          2   
#>  9        7         1831.     1540.     2178.          1.89
#> 10        6         1570.     1320.     1867.          2.04
#> # ℹ 29 more rows
```

``` r
matches %>%
    dplyr::count(.data$pseudo_octave, name='num_harmonics',sort=TRUE) 
#> # A tibble: 31 × 2
#>    pseudo_octave num_harmonics
#>            <dbl>         <int>
#>  1          2                9
#>  2          1                1
#>  3          1.89             1
#>  4          1.91             1
#>  5          1.93             1
#>  6          1.93             1
#>  7          1.93             1
#>  8          1.93             1
#>  9          1.94             1
#> 10          1.94             1
#> # ℹ 21 more rows
```
…
``` r
matches=analyze_harmonics(hrep::freq(M3),hrep::freq(M3) %>% min,C4_harmonics_w_tolerance)
matches
#> # A tibble: 38 × 5
#>    harmonic harmonic_freq valid_min valid_max pseudo_octave
#>       <int>         <dbl>     <dbl>     <dbl>         <dbl>
#>  1        2          523.      440       622.          1.59
#>  2        3          785.      660.      933.          1.73
#>  3        4         1047.      880      1245.          1.73
#>  4        4         1047.      880      1245.          1.78
#>  5        5         1308.     1100.     1556.          1.81
#>  6        5         1308.     1100.     1556.          1.82
#>  7        6         1570.     1320.     1867.          1.83
#>  8        7         1831.     1540.     2178.          1.74
#>  9        6         1570.     1320.     1867.          1.86
#> 10        7         1831.     1540.     2178.          1.77
#> # ℹ 28 more rows
```

``` r
matches %>%
    dplyr::count(.data$pseudo_octave, name='num_harmonics',sort=TRUE) 
#> # A tibble: 38 × 2
#>    pseudo_octave num_harmonics
#>            <dbl>         <int>
#>  1          1.59             1
#>  2          1.73             1
#>  3          1.73             1
#>  4          1.74             1
#>  5          1.77             1
#>  6          1.77             1
#>  7          1.78             1
#>  8          1.79             1
#>  9          1.80             1
#> 10          1.81             1
#> # ℹ 28 more rows
```
